<svg width="21" height="21" viewBox="0 0 21 21" fill="none" xmlns="http://www.w3.org/2000/svg">
<path d="M18.3087 16.2753C18.3087 16.5753 18.242 16.8837 18.1003 17.1837C17.9587 17.4837 17.7753 17.767 17.5337 18.0337C17.1253 18.4837 16.6753 18.8087 16.167 19.017C15.667 19.2253 15.1253 19.3337 14.542 19.3337C13.692 19.3337 12.7837 19.1337 11.8253 18.7253C10.867 18.317 9.90866 17.767 8.95866 17.0753C8.00033 16.3753 7.09199 15.6003 6.22533 14.742C5.36699 13.8753 4.59199 12.967 3.90033 12.017C3.21699 11.067 2.66699 10.117 2.26699 9.17533C1.86699 8.22533 1.66699 7.31699 1.66699 6.45033C1.66699 5.88366 1.76699 5.34199 1.96699 4.84199C2.16699 4.33366 2.48366 3.86699 2.92533 3.45033C3.45866 2.92533 4.04199 2.66699 4.65866 2.66699C4.89199 2.66699 5.12533 2.71699 5.33366 2.81699C5.55033 2.91699 5.74199 3.06699 5.89199 3.28366L7.82533 6.00866C7.97533 6.21699 8.08366 6.40866 8.15866 6.59199C8.23366 6.76699 8.27533 6.94199 8.27533 7.10033C8.27533 7.30033 8.21699 7.50033 8.10033 7.69199C7.99199 7.88366 7.83366 8.08366 7.63366 8.28366L7.00033 8.94199C6.90866 9.03366 6.86699 9.14199 6.86699 9.27533C6.86699 9.34199 6.87533 9.40033 6.89199 9.46699C6.91699 9.53366 6.94199 9.58366 6.95866 9.63366C7.10866 9.90866 7.36699 10.267 7.73366 10.7003C8.10866 11.1337 8.50866 11.5753 8.94199 12.017C9.39199 12.4587 9.82533 12.867 10.267 13.242C10.7003 13.6087 11.0587 13.8587 11.342 14.0087C11.3837 14.0253 11.4337 14.0503 11.492 14.0753C11.5587 14.1003 11.6253 14.1087 11.7003 14.1087C11.842 14.1087 11.9503 14.0587 12.042 13.967L12.6753 13.342C12.8837 13.1337 13.0837 12.9753 13.2753 12.8753C13.467 12.7587 13.6587 12.7003 13.867 12.7003C14.0253 12.7003 14.192 12.7337 14.3753 12.8087C14.5587 12.8837 14.7503 12.992 14.9587 13.1337L17.717 15.092C17.9337 15.242 18.0837 15.417 18.1753 15.6253C18.2587 15.8337 18.3087 16.042 18.3087 16.2753Z" stroke="#0A1625" stroke-opacity="0.2" stroke-width="2" stroke-miterlimit="10"/>
<path d="M15.4167 8.50065C15.4167 8.00065 15.025 7.23398 14.4417 6.60898C13.9083 6.03398 13.2 5.58398 12.5 5.58398" stroke="#0A1625" stroke-opacity="0.2" stroke-width="2" stroke-linecap="round" stroke-linejoin="round"/>
<path d="M18.3333 8.50033C18.3333 5.27533 15.725 2.66699 12.5 2.66699" stroke="#0A1625" stroke-opacity="0.2" stroke-width="2" stroke-linecap="round" stroke-linejoin="round"/>
</svg>
